12:17:16	keimola	10.85 seconds. 
02:09:49	keimola	11.1 seconds. 
02:58:47	keimola	9.484 seconds. 
03:16:56	keimola	11.35 seconds. 
03:39:26	keimola	17.384 seconds. 
04:10:21	keimola	9.566 seconds. 
04:25:23	keimola	9.884 seconds. 
04:31:41	keimola	9.917 seconds. 
04:48:23	keimola	10.866 seconds. 
04:55:35	keimola	9.133 seconds. 
05:25:23	keimola	17.384 seconds. 
05:45:16	keimola	10.183 seconds. 
06:45:59	keimola	8.917 seconds. 
06:56:48	keimola	10.583 seconds. 
07:26:13	keimola	9.483 seconds. 
07:54:59	keimola	15.517 seconds. 
